difference-between-two | gglee Blog
…
df1 <- rnorm_simulation(
  inspection = "1st", mu = 10, sigma = 1, n_sample = 4, seed = 21
) %>% rename_all(~str_c(., '_1'))
df1

## # A tibble: 10,000 x 6
##    inspection_1 grid_1 n_sample_1 sample_mean_1 sample_sd_1 sample_var_1
##    <chr>         <int>      <dbl>         <dbl>       <dbl>        <dbl>
##  1 1st               1          4         10.4        1.26         1.59 
##  2 1st               2          4         10.0        1.67         2.78 
##  3 1st               3          4          9.64       1.32         1.74 
##  4 1st               4          4         10.4        0.859        0.737
##  5 1st               5          4         10.1        0.896        0.803
##  6 1st               6          4          9.53       0.806        0.650
##  7 1st               7          4          9.93       0.809        0.654
##  8 1st               8          4          9.08       0.627        0.394
##  9 1st               9          4         10.7        0.769        0.591
## 10 1st              10          4         11.2        0.772        0.596
## # … with 9,990 more rows

df2 <- rnorm_simulation(
  inspection = "2nd", mu = 9, sigma = 1, n_sample = 4, seed = 23
) %>% rename_all(~str_c(., '_2'))
df2

## # A tibble: 10,000 x 6
##    inspection_2 grid_2 n_sample_2 sample_mean_2 sample_sd_2 sample_var_2
##    <chr>         <int>      <dbl>         <dbl>       <dbl>        <dbl>
##  1 2nd               1          4          9.62       0.959        0.919
##  2 2nd               2          4          9.71       0.661        0.437
##  3 2nd               3          4          9.20       1.08         1.16 
##  4 2nd               4          4          8.82       0.766        0.587
##  5 2nd               5          4          8.93       0.910        0.828
##  6 2nd               6          4          8.97       0.999        0.999
##  7 2nd               7          4          9.05       0.833        0.693
##  8 2nd               8          4          8.76       0.430        0.185
##  9 2nd               9          4          8.39       0.703        0.495
## 10 2nd              10          4          9.26       1.16         1.34 
## # … with 9,990 more rows

dd <- 
  bind_cols(df1, df2)
dd

## # A tibble: 10,000 x 12
##    inspection_1 grid_1 n_sample_1 sample_mean_1 sample_sd_1 sample_var_1
##    <chr>         <int>      <dbl>         <dbl>       <dbl>        <dbl>
##  1 1st               1          4         10.4        1.26         1.59 
##  2 1st               2          4         10.0        1.67         2.78 
##  3 1st               3          4          9.64       1.32         1.74 
##  4 1st               4          4         10.4        0.859        0.737
##  5 1st               5          4         10.1        0.896        0.803
##  6 1st               6          4          9.53       0.806        0.650
##  7 1st               7          4          9.93       0.809        0.654
##  8 1st               8          4          9.08       0.627        0.394
##  9 1st               9          4         10.7        0.769        0.591
## 10 1st              10          4         11.2        0.772        0.596
## # … with 9,990 more rows, and 6 more variables: inspection_2 <chr>,
## #   grid_2 <int>, n_sample_2 <dbl>, sample_mean_2 <dbl>, sample_sd_2 <dbl>,
## #   sample_var_2 <dbl>

dd <- dd %>% 
  mutate(
    diff_mean = sample_mean_2 - sample_mean_1,
    diff_sd = sqrt(sample_sd_2^2 / n_sample_2 + sample_sd_1^2 / n_sample_1),
    diff_var = sample_var_2 / n_sample_2 + sample_var_1 / n_sample_1
  )
dd

## # A tibble: 10,000 x 15
##    inspection_1 grid_1 n_sample_1 sample_mean_1 sample_sd_1 sample_var_1
##    <chr>         <int>      <dbl>         <dbl>       <dbl>        <dbl>
##  1 1st               1          4         10.4        1.26         1.59 
##  2 1st               2          4         10.0        1.67         2.78 
##  3 1st               3          4          9.64       1.32         1.74 
##  4 1st               4          4         10.4        0.859        0.737
##  5 1st               5          4         10.1        0.896        0.803
##  6 1st               6          4          9.53       0.806        0.650
##  7 1st               7          4          9.93       0.809        0.654
##  8 1st               8          4          9.08       0.627        0.394
##  9 1st               9          4         10.7        0.769        0.591
## 10 1st              10          4         11.2        0.772        0.596
## # … with 9,990 more rows, and 9 more variables: inspection_2 <chr>,
## #   grid_2 <int>, n_sample_2 <dbl>, sample_mean_2 <dbl>, sample_sd_2 <dbl>,
## #   sample_var_2 <dbl>, diff_mean <dbl>, diff_sd <dbl>, diff_var <dbl>
…
